[
    {
        "username": "user1",
        "password": "123",
        "qs_user" : "User1",
        "email"   : "user1@gmail.com",
        "name": "User1"
    },
    
    {
        "username": "user2",
        "password": "123",
        "qs_user" : "User2",
        "email"   : "user2@gmail.com",
        "name": "User"
    },
    
    {
        "username": "user3",
        "password": "123",
        "qs_user" : "User3",
        "email"   : "user3@gmail.com",
        "name": "User3"
    },
    
    {
        "username": "user4",
        "password": "123",
        "qs_user" : "User4",
        "email"   : "user4@gmail.com",
        "name": "User4"
    },
    
    {
        "username": "user5",
        "password": "123",
        "qs_user" : "User5",
        "email"   : "user5@gmail.com",
        "name": "User5"
    },
    
    {
        "username": "user6",
        "password": "123",
        "qs_user" : "User6",
        "email"   : "user6@gmail.com",
        "name": "User6"
    },
    
    {
        "username": "user7",
        "password": "123",
        "qs_user" : "User7",
        "email"   : "user7@gmail.com",
        "name": "User7"
    },

    {
        "username": "user8",
        "password": "123",
        "qs_user" : "User8",
        "email"   : "user8@gmail.com",
        "name": "User8"
    },

    {
        "username": "user9",
        "password": "123",
        "qs_user" : "User9",
        "email"   : "user9@gmail.com",
        "name": "User9"
    },

    {
        "username": "user10",
        "password": "123",
        "qs_user" : "User10",
        "email"   : "user10@gmail.com",
        "name": "User10"
    },

    {
        "username": "sumit",
        "password": "123",
        "qs_user" : "sumit_kumar",
        "email"   : "sumit@gmail.com",
        "name": "Sumit"
    },
    {
        "username": "marc",
        "password": "123",
        "qs_user" : "marc_muusse",
        "email"   : "marc_muusse@gmail.com",
        "name": "Marc"
    },
    {
        "username": "piers",
        "password": "123",
        "qs_user" : "piers_batchelor",
        "email"   : "piers_batchelor@gmail.com",
        "name": "Piers"
    },
    {
        "username": "rory",
        "password": "123",
        "qs_user" : "rory_oliver",
        "email"   : "rory_oliver@gmail.com",
        "name": "Rory"
    }
    
]

